24737795
459601671
997029560
180066380
17008726
57048329
14501193
278289184
18453792
534915435
19644356
1327811654
32826059
95690038
24266551
27091468
531700417
25170188
1240382402
2400485665
108305299
774187063
26628211
66101007
2363164515
20169695
1884482485
126076363
159163901
58816328
297513281
48442572
19549159
15519430
42755316
2323398576
69373847
53082615
23080244
80943051
25612932
2331233665
461767385
68867011
43072503
828405074
2321240208
185781807
1498908295
26782958
582046502
176953445
8771022
153470677
1117957238
452678207
104630046
32122637
17444573
1601081580
16145224
44191406
78232803
2171612306
88367755
21769127
15311606
612989451
18913121
132825641
15122803
1504473049
1486529354
17242874
15380717
1012402058
20710809
21687138
498292566
1130356441
1918431936
2440252190
2458781599
197177555
234782444
95133186
38883394
403852401
35209797
20661539
88062696
98565834
100355594
244844833
16723838
34667148
110365072
241914467
56634749
1716892602
2309049529
595588306
18204034
14270208
41257864
47916936
82169284
3065101
41656017
169534344
2213128201
750342270
323704317
20859930
834316544
1522571653
42638195
1948946276
34817243
38666008
190645797
70553530
45758949
1563421674
206392391
463216531
17796018
115274644
156568542
400279855
72955864
255544625
832637768
281652440
124332711
50276735
74617502
123351757
2231696251
395609575
136450598
1400234592
154584937
2426221916
34643446
459293540
191538603
173195708
1500822031
16209537
78207242
22653968
1655612342
792626372
792626372
368442728
14996627
14880616
104257930
1734832190
97354038
17579948
19864215
28164096
180831007
70968175
26594945
177249340
39578237
366326857
16775743
14568169
271398203
26527812
20639369
32579231
17365270
20401206
22104722
2869531
531559937
50349732
2254415478
17043428
18779645
326660915
250868268
142117393
21952537
811226419
45171296
21731244
32479187
94175843
221438702
111006185
199299110
1292362992
82380012
473184880
21386438
192971881
865919816
16422358
71277528
14709355
59835650
18229773
2432649403
15131310
15089174
137717770
496518061
2156029915
862551800
862551800
71391038